{
  "navigationBarBackgroundColor": "#2476ff",
  "navigationBarTextStyle": "white",
  "navigationBarTitleText": "注册",
  "backgroundColor": "#eeeeee",
  "backgroundTextStyle": "light",
  "enablePullDownRefresh": true,
  "disableScroll": true
}